{
    "samples": "data/samples/huvec_samples.txt",

    "stand_call":  "1",
    "stand_emit":  "1",
    "threads":     12,
    "max_diff":    "0.04",
    "seed_diff":   "2",
    "distance":    "4",
    "epsilon":     "75",
    "min_samples": "4",


    "SNPs":             "data/ref/dbSNP.cleaned.vcf",
    "editing_types":    "data/ref/editing_types_from_base_to_base.txt",
    "reference_genome": "data/ref/Homo_sapiens.GRCh38.dna.primary_assembly.fa",
    "repeats":          "data/ref/e90_human_alu_repeats.bed",
    "gtf":              "data/ref/Homo_sapiens.GRCh38.90.gtf",
    "splice_junctions": "data/ref/Homo_sapiens.GRCh38.90.gtf.splice_junctions.bed",
    "exons":            "data/ref/Homo_sapiens.GRCh38.90.gtf.exons.bed",

    "gatk_path":    "GenomeAnalysisTK.jar",
    "picard_path":  "MarkDuplicates.jar"

}
